{
    "EN" : {
      "200" :"Successfull",
      "201" :"Value added successfully",
      "202" :"Successfully sent",
      "203" :"Match found",
      "204" :"No data found",
      "205" :"Data already exist",
      "206" :"Not Active",
      "303" :"Required field not found",
      "400" :"Please try again",
      "401" :"mail was not sent",
      "404" :"Some error occured",
      "405" :"Some error occured during updation",
      "406" :"Call was not sent",
      "407" :"Already Joined",
      "408" :"conference not initiated",
      "411" :"File Upload Failed",
      "412" :"Participant Removed from Conference",
      "503" :"Requested details Not found",
      "504" :"User details Not found",
      "1001":"Account with this email already exists"       
    },   
    "en" : {
      "200" :"Successfull",
      "201" :"Value added successfully",
      "202" :"Successfully sent",
      "203" :"Match found",
      "204" :"No data found",
      "205" :"Data already exist",
      "206" :"Not Active",
      "303" :"Required field not found",
      "400" :"Please try again",
      "401" :"mail was not sent",
      "404" :"Some error occured",
      "405" :"Some error occured during updation",
      "406" :"Call was not sent",
      "407" :"Already Joined",
      "408" :"conference not initiated",
      "411" :"File Upload Failed",
      "412" :"Participant Removed from Conference",
      "503" :"Requested details Not found",
      "504" :"User details Not found",
      "1001":"Account with this email already exists"
    }

}
